﻿[
  {
    "fineId": 2,
    "title": "Uneccisary yellow card",
    "description": "Yellow card from complaining on the referee, kicking away the ball or other stupid stuff.",
    "explaination": null,
    "idPlayerFined": 1,
    "amount": 50,
    "date": "2018-01-01T00:00:00",
    "isApproved": true,
    "isPaid": true,
    "datePaid": "2018-01-30T00:00:00"
  },
  {
    "fineId": 3,
    "title": "Late to practice",
    "description": "Being late to practice without notifying the coach via SMS.",
    "explaination": null,
    "idPlayerFined": 1,
    "amount": 15,
    "date": "2018-01-01T00:00:00",
    "isApproved": true,
    "isPaid": true,
    "datePaid": "2018-01-30T00:00:00"
  },
  {
    "fineId": 4,
    "title": "Late to game",
    "description": "Being late to a game without notifying the coach via SMS.",
    "explaination": null,
    "idPlayerFined": 1,
    "amount": 0,
    "date": "2018-01-10T00:00:00",
    "isApproved": true,
    "isPaid": false,
    "datePaid": "0001-01-01T00:00:00"
  },
  {
    "fineId": 5,
    "title": "Shooting over the fence",
    "description": "Sucking so bad that you not only miss the goal, you also shoot over the fence.",
    "explaination": null,
    "idPlayerFined": 2,
    "amount": 10,
    "date": "2018-01-29T00:00:00",
    "isApproved": true,
    "isPaid": false,
    "datePaid": "0001-01-01T00:00:00"
  },
  {
    "fineId": 6,
    "title": "Uneccisary red card",
    "description": "Red card from complaining on the referee, kicking away the ball or other stupid stuff.",
    "explaination": null,
    "idPlayerFined": 2,
    "amount": 100,
    "date": "2018-01-01T00:00:00",
    "isApproved": true,
    "isPaid": true,
    "datePaid": "2018-01-30T00:00:00"
  },
  {
    "fineId": 7,
    "title": "Didn't show up at practice",
    "description": "Being a no-show for practice without notifying coach via sms, or if the reason for not showing is not accepted.",
    "explaination": null,
    "idPlayerFined": 3,
    "amount": 30,
    "date": "2018-01-01T00:00:00",
    "isApproved": true,
    "isPaid": true,
    "datePaid": "2018-01-30T00:00:00"
  },
  {
    "fineId": 8,
    "title": "Forgot equipment - game",
    "description": "Forgetting any type of neccisarry equipment on match day.",
    "explaination": null,
    "idPlayerFined": 3,
    "amount": 50,
    "date": "2018-01-01T00:00:00",
    "isApproved": true,
    "isPaid": true,
    "datePaid": "2018-01-30T00:00:00"
  },
  {
    "fineId": 9,
    "title": "Didn't show up at practice",
    "description": "Being a no-show for practice without notifying coach via sms, or if the reason for not showing is not accepted.",
    "explaination": null,
    "idPlayerFined": 4,
    "amount": 30,
    "date": "2018-01-01T00:00:00",
    "isApproved": true,
    "isPaid": false,
    "datePaid": "0001-01-01T00:00:00"
  },
  {
    "fineId": 10,
    "title": "Late to practice",
    "description": "Being late to practice without notifying the coach via SMS.",
    "explaination": null,
    "idPlayerFined": 4,
    "amount": 15,
    "date": "2018-01-05T00:00:00",
    "isApproved": true,
    "isPaid": false,
    "datePaid": "0001-01-01T00:00:00"
  },
  {
    "fineId": 11,
    "title": "Uneccisary yellow card",
    "description": "Yellow card from complaining on the referee, kicking away the ball or other stupid stuff.",
    "explaination": null,
    "idPlayerFined": 5,
    "amount": 50,
    "date": "2018-01-05T00:00:00",
    "isApproved": true,
    "isPaid": false,
    "datePaid": "0001-01-01T00:00:00"
  }
]
